{
  "project_info": {
    "project_number": "803536396372",
    "firebase_url": "https://total-quartz-club.firebaseio.com",
    "project_id": "total-quartz-club",
    "storage_bucket": "total-quartz-club.appspot.com"
  },
  "client": [
    {
      "client_info": {
        "mobilesdk_app_id": "1:803536396372:android:1a9f3810225e137c",
        "android_client_info": {
          "package_name": "mobi.app4mob.quartzclub.activity"
        }
      },
      "oauth_client": [
        {
          "client_id": "803536396372-j3s4d17r35nkd4slv94ta1relp0m3mam.apps.googleusercontent.com",
          "client_type": 3
        }
      ],
      "api_key": [
        {
          "current_key": "AIzaSyBLBm-zN1l3zkg3cOlJUXXt1ArFMN_n9UI"
        }
      ],
      "services": {
        "analytics_service": {
          "status": 1
        },
        "appinvite_service": {
          "status": 1,
          "other_platform_oauth_client": []
        },
        "ads_service": {
          "status": 2
        }
      }
    }
  ],
  "configuration_version": "1"
}